{
  "project_info": {
    "project_number": "330155568392",
    "firebase_url": "https://innovacion-orbita.firebaseio.com",
    "project_id": "innovacion-orbita",
    "storage_bucket": "innovacion-orbita.appspot.com"
  },
  "client": [
    {
      "client_info": {
        "mobilesdk_app_id": "1:330155568392:android:50b36ee25cea5237",
        "android_client_info": {
          "package_name": "com.orbita.innovacion.sva_escuela"
        }
      },
      "oauth_client": [
        {
          "client_id": "330155568392-ndtm8d421jqhl069u10e1tc8o8d2id32.apps.googleusercontent.com",
          "client_type": 1,
          "android_info": {
            "package_name": "com.orbita.innovacion.sva_escuela",
            "certificate_hash": "47b9f55bf26896ec4ad50933b43b85de75eb39f1"
          }
        },
        {
          "client_id": "330155568392-mnan5j0g6g7l6tobpdsg2ir6vfa886vh.apps.googleusercontent.com",
          "client_type": 3
        }
      ],
      "api_key": [
        {
          "current_key": "AIzaSyDZJe652tUG4750KsihYRjkhDB73dl-qTo"
        }
      ],
      "services": {
        "analytics_service": {
          "status": 1
        },
        "appinvite_service": {
          "status": 2,
          "other_platform_oauth_client": [
            {
              "client_id": "330155568392-mnan5j0g6g7l6tobpdsg2ir6vfa886vh.apps.googleusercontent.com",
              "client_type": 3
            }
          ]
        },
        "ads_service": {
          "status": 2
        }
      }
    },
    {
      "client_info": {
        "mobilesdk_app_id": "1:330155568392:android:51dde2e284f32c3b",
        "android_client_info": {
          "package_name": "com.orbita.innovacion.proyinte"
        }
      },
      "oauth_client": [
        {
          "client_id": "330155568392-stcmlcchil7mq40t7k7cnn37e4je49hp.apps.googleusercontent.com",
          "client_type": 1,
          "android_info": {
            "package_name": "com.orbita.innovacion.proyinte",
            "certificate_hash": "47b9f55bf26896ec4ad50933b43b85de75eb39f1"
          }
        },
        {
          "client_id": "330155568392-mnan5j0g6g7l6tobpdsg2ir6vfa886vh.apps.googleusercontent.com",
          "client_type": 3
        }
      ],
      "api_key": [
        {
          "current_key": "AIzaSyDZJe652tUG4750KsihYRjkhDB73dl-qTo"
        }
      ],
      "services": {
        "analytics_service": {
          "status": 1
        },
        "appinvite_service": {
          "status": 2,
          "other_platform_oauth_client": [
            {
              "client_id": "330155568392-mnan5j0g6g7l6tobpdsg2ir6vfa886vh.apps.googleusercontent.com",
              "client_type": 3
            }
          ]
        },
        "ads_service": {
          "status": 2
        }
      }
    }
  ],
  "configuration_version": "1"
}